EESchema Schematic File Version 2  date 12/04/2013 15:51:44
LIBS:abdullah
LIBS:power
LIBS:device
LIBS:transistors
LIBS:conn
LIBS:linear
LIBS:regul
LIBS:74xx
LIBS:cmos4000
LIBS:adc-dac
LIBS:memory
LIBS:xilinx
LIBS:special
LIBS:microcontrollers
LIBS:dsp
LIBS:microchip
LIBS:analog_switches
LIBS:motorola
LIBS:texas
LIBS:intel
LIBS:audio
LIBS:interface
LIBS:digital-audio
LIBS:philips
LIBS:display
LIBS:cypress
LIBS:siliconi
LIBS:opto
LIBS:atmel
LIBS:contrib
LIBS:valves
LIBS:Elevator-cache
EELAYER 27 0
EELAYER END
$Descr A4 11693 8268
encoding utf-8
Sheet 2 2
Title ""
Date "12 apr 2013"
Rev ""
Comp ""
Comment1 ""
Comment2 ""
Comment3 ""
Comment4 ""
$EndDescr
Wire Wire Line
	2600 1850 2600 1950
Wire Wire Line
	2600 1950 2450 1950
Connection ~ 2700 4950
Wire Wire Line
	2600 4950 2700 4950
Wire Wire Line
	2700 5700 2800 5700
Wire Wire Line
	2700 5400 2800 5400
Wire Wire Line
	2800 5100 2700 5100
Wire Wire Line
	2700 5100 2700 4800
Wire Wire Line
	2700 4200 2800 4200
Wire Wire Line
	2700 3900 2800 3900
Wire Wire Line
	2550 2950 2550 2850
Wire Wire Line
	2800 3600 2550 3600
Wire Wire Line
	2550 3600 2550 3450
Wire Wire Line
	2800 3750 2200 3750
Wire Wire Line
	2200 3750 2200 3450
Wire Wire Line
	2200 2850 2200 2950
Wire Wire Line
	2800 4050 2700 4050
Wire Wire Line
	2800 4350 2700 4350
Wire Wire Line
	2800 5250 2700 5250
Wire Wire Line
	2800 5550 2700 5550
Wire Wire Line
	2800 5850 2700 5850
Wire Wire Line
	2200 4950 2150 4950
Wire Wire Line
	2150 4950 2150 5000
Wire Wire Line
	4300 5650 4200 5650
Wire Wire Line
	4300 5350 4200 5350
Wire Wire Line
	4200 5100 4200 5200
Wire Wire Line
	4200 5200 4300 5200
Wire Wire Line
	4200 5500 4300 5500
Wire Wire Line
	4200 5800 4300 5800
Wire Wire Line
	4300 4100 4200 4100
Wire Wire Line
	4200 4100 4200 4200
Wire Wire Line
	4300 3950 4200 3950
Wire Wire Line
	2600 2200 2600 2100
Wire Wire Line
	2600 2100 2450 2100
$Comp
L GND #PWR043
U 1 1 5155C32B
P 2600 2200
F 0 "#PWR043" H 2600 2200 30  0001 C CNN
F 1 "GND" H 2600 2130 30  0001 C CNN
F 2 "" H 2600 2200 60  0001 C CNN
F 3 "" H 2600 2200 60  0001 C CNN
	1    2600 2200
	1    0    0    -1  
$EndComp
$Comp
L +12V #PWR044
U 1 1 5155C329
P 2600 1850
F 0 "#PWR044" H 2600 1800 20  0001 C CNN
F 1 "+12V" H 2600 2000 50  0000 C CNN
F 2 "" H 2600 1850 60  0001 C CNN
F 3 "" H 2600 1850 60  0001 C CNN
	1    2600 1850
	1    0    0    -1  
$EndComp
$Comp
L CONNECTOR-2 P1
U 1 1 5155C321
P 2250 1950
F 0 "P1" H 2200 2100 60  0000 C CNN
F 1 "Power In" V 2100 1850 50  0000 C CNN
F 2 "" H 2250 1950 60  0001 C CNN
F 3 "" H 2250 1950 60  0001 C CNN
	1    2250 1950
	1    0    0    -1  
$EndComp
$Comp
L CONNECTOR-6 P2
U 1 1 5155C20C
P 3000 3900
F 0 "P2" H 2950 4350 60  0000 C CNN
F 1 "Stepper Motor" V 2850 3850 50  0000 C CNN
F 2 "" H 3000 3900 60  0001 C CNN
F 3 "" H 3000 3900 60  0001 C CNN
	1    3000 3900
	-1   0    0    -1  
$EndComp
$Comp
L R-VERT R19
U 1 1 5155C20B
P 2550 3200
F 0 "R19" H 2650 3300 50  0000 L CNN
F 1 "6R8" H 2650 3200 50  0000 L CNN
F 2 "" H 2550 3200 60  0001 C CNN
F 3 "" H 2550 3200 60  0001 C CNN
F 4 "5W" H 2650 3100 40  0000 L CNN "Wattage"
	1    2550 3200
	1    0    0    -1  
$EndComp
$Comp
L R-VERT R18
U 1 1 5155C20A
P 2200 3200
F 0 "R18" H 2300 3300 50  0000 L CNN
F 1 "6R8" H 2300 3200 50  0000 L CNN
F 2 "" H 2200 3200 60  0001 C CNN
F 3 "" H 2200 3200 60  0001 C CNN
F 4 "5W" H 2300 3100 40  0000 L CNN "Wattage"
	1    2200 3200
	-1   0    0    -1  
$EndComp
$Comp
L +12V #PWR045
U 1 1 5155C209
P 2200 2850
F 0 "#PWR045" H 2200 2800 20  0001 C CNN
F 1 "+12V" H 2200 3000 50  0000 C CNN
F 2 "" H 2200 2850 60  0001 C CNN
F 3 "" H 2200 2850 60  0001 C CNN
	1    2200 2850
	1    0    0    -1  
$EndComp
$Comp
L +12V #PWR046
U 1 1 5155C208
P 2550 2850
F 0 "#PWR046" H 2550 2800 20  0001 C CNN
F 1 "+12V" H 2550 3000 50  0000 C CNN
F 2 "" H 2550 2850 60  0001 C CNN
F 3 "" H 2550 2850 60  0001 C CNN
	1    2550 2850
	1    0    0    -1  
$EndComp
Text GLabel 2700 3900 0    30   Input ~ 0
Stepper Motor - W1A
Text GLabel 2700 4050 0    30   Input ~ 0
Stepper Motor - W2A
Text GLabel 2700 4200 0    30   Input ~ 0
Stepper Motor - W1B
Text GLabel 2700 4350 0    30   Input ~ 0
Stepper Motor - W2B
Text GLabel 2700 5250 0    30   Input ~ 0
Buttons - 1st Floor
Text GLabel 2700 5400 0    30   Input ~ 0
Buttons - 2nd Floor
Text GLabel 2700 5550 0    30   Input ~ 0
Buttons - 3rd Floor
Text GLabel 2700 5700 0    30   Input ~ 0
Buttons - 4th Floor
Text GLabel 2700 5850 0    30   Input ~ 0
Reference Sensor
$Comp
L CONNECTOR-6 P3
U 1 1 5155C207
P 3000 5400
F 0 "P3" H 2950 5850 60  0000 C CNN
F 1 "Buttons Connector" V 2850 5300 50  0000 C CNN
F 2 "" H 3000 5400 60  0001 C CNN
F 3 "" H 3000 5400 60  0001 C CNN
	1    3000 5400
	-1   0    0    -1  
$EndComp
$Comp
L VCC #PWR047
U 1 1 5155C206
P 2700 4800
F 0 "#PWR047" H 2700 4900 30  0001 C CNN
F 1 "VCC" H 2700 4925 50  0000 C CNN
F 2 "" H 2700 4800 60  0001 C CNN
F 3 "" H 2700 4800 60  0001 C CNN
	1    2700 4800
	1    0    0    -1  
$EndComp
$Comp
L C-HRZ C7
U 1 1 5155C205
P 2400 4950
F 0 "C7" H 2399 5125 50  0000 C CNN
F 1 "150n" H 2399 4775 50  0000 C CNN
F 2 "" H 2400 4950 60  0001 C CNN
F 3 "" H 2400 4950 60  0001 C CNN
F 4 "V" H 2399 4675 40  0001 C CNN "Voltage"
	1    2400 4950
	1    0    0    -1  
$EndComp
$Comp
L GND #PWR048
U 1 1 5155C204
P 2150 5000
F 0 "#PWR048" H 2150 5000 30  0001 C CNN
F 1 "GND" H 2150 4930 30  0001 C CNN
F 2 "" H 2150 5000 60  0001 C CNN
F 3 "" H 2150 5000 60  0001 C CNN
	1    2150 5000
	1    0    0    -1  
$EndComp
$Comp
L VCC #PWR049
U 1 1 5155C203
P 4200 5100
F 0 "#PWR049" H 4200 5200 30  0001 C CNN
F 1 "VCC" H 4200 5225 50  0000 C CNN
F 2 "" H 4200 5100 60  0001 C CNN
F 3 "" H 4200 5100 60  0001 C CNN
	1    4200 5100
	1    0    0    -1  
$EndComp
Text GLabel 4200 5800 0    30   Input ~ 0
Buttons - 4th Floor
Text GLabel 4200 5650 0    30   Input ~ 0
Buttons - 3rd Floor
Text GLabel 4200 5500 0    30   Input ~ 0
Buttons - 2nd Floor
Text GLabel 4200 5350 0    30   Input ~ 0
Buttons - 1st Floor
$Comp
L CONNECTOR-5 P5
U 1 1 5155C202
P 4500 5500
F 0 "P5" H 4450 5950 60  0000 C CNN
F 1 "Buttons Duplicator" V 4350 5500 50  0000 C CNN
F 2 "" H 4500 5500 60  0001 C CNN
F 3 "" H 4500 5500 60  0001 C CNN
	1    4500 5500
	-1   0    0    -1  
$EndComp
$Comp
L GND #PWR050
U 1 1 5155C200
P 4200 4200
F 0 "#PWR050" H 4200 4200 30  0001 C CNN
F 1 "GND" H 4200 4130 30  0001 C CNN
F 2 "" H 4200 4200 60  0001 C CNN
F 3 "" H 4200 4200 60  0001 C CNN
	1    4200 4200
	1    0    0    -1  
$EndComp
Text GLabel 4200 3950 0    30   Input ~ 0
Moving LED
$Comp
L CONNECTOR-2 P4
U 1 1 515D5F63
P 4500 3950
F 0 "P4" H 4450 4100 60  0000 C CNN
F 1 "LEDs Connector" V 4350 3900 50  0000 C CNN
F 2 "" H 4500 3950 60  0000 C CNN
F 3 "" H 4500 3950 60  0000 C CNN
	1    4500 3950
	-1   0    0    -1  
$EndComp
$EndSCHEMATC
