EESchema Schematic File Version 2  date 12/04/2013 15:51:44
LIBS:abdullah
LIBS:power
LIBS:device
LIBS:transistors
LIBS:conn
LIBS:linear
LIBS:regul
LIBS:74xx
LIBS:cmos4000
LIBS:adc-dac
LIBS:memory
LIBS:xilinx
LIBS:special
LIBS:microcontrollers
LIBS:dsp
LIBS:microchip
LIBS:analog_switches
LIBS:motorola
LIBS:texas
LIBS:intel
LIBS:audio
LIBS:interface
LIBS:digital-audio
LIBS:philips
LIBS:display
LIBS:cypress
LIBS:siliconi
LIBS:opto
LIBS:atmel
LIBS:contrib
LIBS:valves
LIBS:Elevator-cache
EELAYER 27 0
EELAYER END
$Descr A4 11693 8268
encoding utf-8
Sheet 1 2
Title ""
Date "12 apr 2013"
Rev ""
Comp ""
Comment1 ""
Comment2 ""
Comment3 ""
Comment4 ""
$EndDescr
Connection ~ 10250 3100
Wire Wire Line
	10250 2800 10250 3100
Connection ~ 10050 2250
Wire Wire Line
	9300 2250 10250 2250
Wire Wire Line
	10250 2250 10250 2300
Wire Wire Line
	9450 5450 9450 5350
Wire Wire Line
	9450 4050 9450 4150
Wire Wire Line
	9450 4750 9450 4850
Wire Wire Line
	9550 4800 9450 4800
Connection ~ 9450 4800
Connection ~ 10250 4800
Wire Wire Line
	10350 4800 10250 4800
Wire Wire Line
	10250 4750 10250 4850
Wire Wire Line
	10250 4050 10250 4150
Wire Wire Line
	10250 5450 10250 5350
Wire Wire Line
	8650 5450 8650 5350
Wire Wire Line
	8650 4050 8650 4150
Wire Wire Line
	8650 4750 8650 4850
Wire Wire Line
	8750 4800 8650 4800
Connection ~ 8650 4800
Connection ~ 2600 4600
Wire Wire Line
	2650 4600 2600 4600
Wire Wire Line
	1250 5500 1250 5450
Wire Wire Line
	2600 4500 2600 4700
Wire Wire Line
	1550 4900 1550 5000
Wire Wire Line
	2600 5500 2600 5100
Wire Wire Line
	2300 4900 2200 4900
Wire Wire Line
	1550 5500 1550 5400
Wire Wire Line
	2600 4050 2600 4100
Wire Wire Line
	1250 4900 1250 4950
Connection ~ 1550 4900
Wire Wire Line
	1150 4900 1700 4900
Connection ~ 1250 4900
Connection ~ 4000 4950
Wire Wire Line
	3900 4950 4450 4950
Connection ~ 4300 4950
Wire Wire Line
	4000 5000 4000 4950
Wire Wire Line
	5350 4100 5350 4150
Wire Wire Line
	4300 5550 4300 5450
Wire Wire Line
	5050 4950 4950 4950
Wire Wire Line
	5350 5550 5350 5150
Wire Wire Line
	4300 4950 4300 5050
Wire Wire Line
	4000 5550 4000 5500
Wire Wire Line
	5400 4650 5350 4650
Connection ~ 5350 4650
Connection ~ 5350 6550
Wire Wire Line
	5400 6550 5350 6550
Wire Wire Line
	4000 7450 4000 7400
Wire Wire Line
	5350 6450 5350 6650
Wire Wire Line
	4300 6850 4300 6950
Wire Wire Line
	5350 7450 5350 7050
Wire Wire Line
	5050 6850 4950 6850
Wire Wire Line
	4300 7450 4300 7350
Wire Wire Line
	5350 6000 5350 6050
Wire Wire Line
	4000 6850 4000 6900
Connection ~ 4300 6850
Wire Wire Line
	3900 6850 4450 6850
Connection ~ 4000 6850
Wire Wire Line
	5400 1850 5500 1850
Wire Wire Line
	5500 1850 5500 1900
Connection ~ 1800 1450
Wire Wire Line
	1800 1850 1900 1850
Wire Wire Line
	1800 1300 1800 1850
Wire Wire Line
	7350 6950 7350 6900
Wire Wire Line
	8200 2800 7500 2800
Wire Wire Line
	8200 2650 8200 2500
Wire Wire Line
	8200 2500 8150 2500
Wire Wire Line
	7500 2800 7500 2500
Wire Wire Line
	7500 2500 7550 2500
Wire Wire Line
	7850 2700 7850 2650
Wire Wire Line
	8200 2950 7900 2950
Wire Wire Line
	7900 2950 7900 3000
Wire Wire Line
	9800 1000 9800 1150
Wire Wire Line
	9250 1400 9250 1600
Wire Wire Line
	8050 1600 8050 1550
Connection ~ 8700 1100
Wire Wire Line
	8050 1100 8850 1100
Connection ~ 9800 1100
Wire Wire Line
	9650 1100 10450 1100
Wire Wire Line
	10450 1100 10450 1150
Wire Wire Line
	6800 5450 6800 5350
Wire Wire Line
	6800 4050 6800 4150
Wire Wire Line
	6800 4750 6800 4850
Wire Wire Line
	6900 4800 6800 4800
Connection ~ 6800 4800
Connection ~ 7850 4800
Wire Wire Line
	7950 4800 7850 4800
Wire Wire Line
	7850 4750 7850 4850
Connection ~ 1250 6800
Wire Wire Line
	1150 6800 1700 6800
Connection ~ 1550 6800
Wire Wire Line
	1250 6850 1250 6800
Wire Wire Line
	2600 5950 2600 6000
Wire Wire Line
	1550 7400 1550 7300
Wire Wire Line
	2300 6800 2200 6800
Wire Wire Line
	2600 7400 2600 7000
Wire Wire Line
	1550 6800 1550 6900
Wire Wire Line
	2600 6400 2600 6600
Wire Wire Line
	1250 7400 1250 7350
Wire Wire Line
	2650 6500 2600 6500
Connection ~ 2600 6500
Wire Wire Line
	7850 4050 7850 4150
Wire Wire Line
	7850 5450 7850 5350
Wire Wire Line
	8700 1150 8700 1100
Wire Wire Line
	9800 1600 9800 1550
Wire Wire Line
	8700 1600 8700 1550
Wire Wire Line
	10450 1600 10450 1550
Wire Wire Line
	8050 1000 8050 1150
Connection ~ 8050 1100
Connection ~ 9700 2250
Wire Wire Line
	9600 3100 10600 3100
Wire Wire Line
	8100 3400 8100 3100
Wire Wire Line
	8100 3100 8200 3100
Wire Wire Line
	7900 3400 7900 3350
Wire Wire Line
	9700 2650 9600 2650
Wire Wire Line
	9700 2200 9700 2650
Wire Wire Line
	9600 2950 10600 2950
Wire Wire Line
	8800 2300 8800 2250
Wire Wire Line
	8800 2250 8900 2250
Wire Wire Line
	7350 6400 7350 6500
Wire Wire Line
	7300 5850 7350 5850
Wire Wire Line
	7350 5850 7350 5900
Wire Wire Line
	7300 6450 7350 6450
Connection ~ 7350 6450
Wire Wire Line
	2200 1450 1800 1450
Wire Wire Line
	2700 1550 2700 1450
Wire Wire Line
	2700 1450 2600 1450
Wire Wire Line
	10050 2250 10050 2300
Wire Wire Line
	10050 2800 10050 2950
Connection ~ 10050 2950
$Comp
L R-VERT R16
U 1 1 5155C39B
P 10250 2550
F 0 "R16" H 10330 2600 50  0000 L CNN
F 1 "10k" H 10330 2500 50  0000 L CNN
F 2 "" H 10250 2550 60  0001 C CNN
F 3 "" H 10250 2550 60  0001 C CNN
F 4 "W" H 10330 2400 40  0001 L CNN "Wattage"
	1    10250 2550
	1    0    0    -1  
$EndComp
$Comp
L R-VERT R15
U 1 1 5155C388
P 10050 2550
F 0 "R15" H 10130 2600 50  0000 L CNN
F 1 "10k" H 10130 2500 50  0000 L CNN
F 2 "" H 10050 2550 60  0001 C CNN
F 3 "" H 10050 2550 60  0001 C CNN
F 4 "W" H 10130 2400 40  0001 L CNN "Wattage"
	1    10050 2550
	-1   0    0    -1  
$EndComp
Text GLabel 5600 2300 2    60   Input ~ 0
SDA
Text GLabel 1850 2750 0    60   Input ~ 0
SCL
Text GLabel 1850 2000 0    30   Input ~ 0
Buttons - 4th Floor
Text GLabel 1850 2150 0    30   Input ~ 0
Buttons - 3rd Floor
Text GLabel 1850 2300 0    30   Input ~ 0
Buttons - 2nd Floor
Text GLabel 5600 2000 2    30   Input ~ 0
Buttons - 1st Floor
Text GLabel 1850 2450 0    30   Input ~ 0
Reference Sensor
Text GLabel 5600 2750 2    30   Input ~ 0
Stepper Motor - C2B
Text GLabel 5600 2600 2    30   Input ~ 0
Stepper Motor - C1B
Text GLabel 5600 2450 2    30   Input ~ 0
Stepper Motor - C2A
Text GLabel 1850 2600 0    30   Input ~ 0
Stepper Motor - C1A
$Comp
L SW_PUSH SW4
U 1 1 5155C2DF
P 9450 4450
F 0 "SW4" V 9500 4350 35  0000 C CNN
F 1 "3rd Floor" V 9400 4200 50  0000 C CNN
F 2 "" H 9450 4450 60  0001 C CNN
F 3 "" H 9450 4450 60  0001 C CNN
	1    9450 4450
	0    -1   -1   0   
$EndComp
$Comp
L R-VERT R14
U 1 1 5155C2DE
P 9450 5100
F 0 "R14" H 9530 5150 50  0000 L CNN
F 1 "10k" H 9530 5050 50  0000 L CNN
F 2 "" H 9450 5100 60  0001 C CNN
F 3 "" H 9450 5100 60  0001 C CNN
F 4 "W" H 9530 4950 40  0001 L CNN "Wattage"
	1    9450 5100
	-1   0    0    -1  
$EndComp
$Comp
L VCC #PWR01
U 1 1 5155C2DD
P 9450 4050
F 0 "#PWR01" H 9450 4150 30  0001 C CNN
F 1 "VCC" H 9450 4175 50  0000 C CNN
F 2 "" H 9450 4050 60  0001 C CNN
F 3 "" H 9450 4050 60  0001 C CNN
	1    9450 4050
	1    0    0    -1  
$EndComp
$Comp
L GND #PWR02
U 1 1 5155C2DC
P 9450 5450
F 0 "#PWR02" H 9450 5450 30  0001 C CNN
F 1 "GND" H 9450 5380 30  0001 C CNN
F 2 "" H 9450 5450 60  0001 C CNN
F 3 "" H 9450 5450 60  0001 C CNN
	1    9450 5450
	1    0    0    -1  
$EndComp
Text GLabel 9550 4800 2    30   Input ~ 0
Buttons - 3rd Floor
Text GLabel 10350 4800 2    30   Input ~ 0
Buttons - 4th Floor
$Comp
L GND #PWR03
U 1 1 5155C2DB
P 10250 5450
F 0 "#PWR03" H 10250 5450 30  0001 C CNN
F 1 "GND" H 10250 5380 30  0001 C CNN
F 2 "" H 10250 5450 60  0001 C CNN
F 3 "" H 10250 5450 60  0001 C CNN
	1    10250 5450
	1    0    0    -1  
$EndComp
$Comp
L VCC #PWR04
U 1 1 5155C2DA
P 10250 4050
F 0 "#PWR04" H 10250 4150 30  0001 C CNN
F 1 "VCC" H 10250 4175 50  0000 C CNN
F 2 "" H 10250 4050 60  0001 C CNN
F 3 "" H 10250 4050 60  0001 C CNN
	1    10250 4050
	1    0    0    -1  
$EndComp
$Comp
L R-VERT R17
U 1 1 5155C2D9
P 10250 5100
F 0 "R17" H 10330 5150 50  0000 L CNN
F 1 "10k" H 10330 5050 50  0000 L CNN
F 2 "" H 10250 5100 60  0001 C CNN
F 3 "" H 10250 5100 60  0001 C CNN
F 4 "W" H 10330 4950 40  0001 L CNN "Wattage"
	1    10250 5100
	-1   0    0    -1  
$EndComp
$Comp
L SW_PUSH SW5
U 1 1 5155C2D8
P 10250 4450
F 0 "SW5" V 10300 4350 35  0000 C CNN
F 1 "4th Floor" V 10200 4200 50  0000 C CNN
F 2 "" H 10250 4450 60  0001 C CNN
F 3 "" H 10250 4450 60  0001 C CNN
	1    10250 4450
	0    -1   -1   0   
$EndComp
$Comp
L SW_PUSH SW3
U 1 1 5155C2D5
P 8650 4450
F 0 "SW3" V 8700 4350 35  0000 C CNN
F 1 "2nd Floor" V 8600 4200 50  0000 C CNN
F 2 "" H 8650 4450 60  0001 C CNN
F 3 "" H 8650 4450 60  0001 C CNN
	1    8650 4450
	0    -1   -1   0   
$EndComp
$Comp
L R-VERT R13
U 1 1 5155C2D4
P 8650 5100
F 0 "R13" H 8730 5150 50  0000 L CNN
F 1 "10k" H 8730 5050 50  0000 L CNN
F 2 "" H 8650 5100 60  0001 C CNN
F 3 "" H 8650 5100 60  0001 C CNN
F 4 "W" H 8730 4950 40  0001 L CNN "Wattage"
	1    8650 5100
	-1   0    0    -1  
$EndComp
$Comp
L VCC #PWR05
U 1 1 5155C2D3
P 8650 4050
F 0 "#PWR05" H 8650 4150 30  0001 C CNN
F 1 "VCC" H 8650 4175 50  0000 C CNN
F 2 "" H 8650 4050 60  0001 C CNN
F 3 "" H 8650 4050 60  0001 C CNN
	1    8650 4050
	1    0    0    -1  
$EndComp
$Comp
L GND #PWR06
U 1 1 5155C2D2
P 8650 5450
F 0 "#PWR06" H 8650 5450 30  0001 C CNN
F 1 "GND" H 8650 5380 30  0001 C CNN
F 2 "" H 8650 5450 60  0001 C CNN
F 3 "" H 8650 5450 60  0001 C CNN
	1    8650 5450
	1    0    0    -1  
$EndComp
Text GLabel 8750 4800 2    30   Input ~ 0
Buttons - 2nd Floor
$Comp
L MOSFET_N Q1
U 1 1 5155C2B6
P 2500 4900
F 0 "Q1" H 2660 4970 50  0000 L CNN
F 1 "IRF530" H 2660 4850 50  0000 L CNN
F 2 "" H 2500 4900 60  0001 C CNN
F 3 "" H 2500 4900 60  0001 C CNN
	1    2500 4900
	1    0    0    -1  
$EndComp
$Comp
L GND #PWR07
U 1 1 5155C2B5
P 2600 5500
F 0 "#PWR07" H 2600 5500 30  0001 C CNN
F 1 "GND" H 2600 5430 30  0001 C CNN
F 2 "" H 2600 5500 60  0001 C CNN
F 3 "" H 2600 5500 60  0001 C CNN
	1    2600 5500
	1    0    0    -1  
$EndComp
$Comp
L ZENER D1
U 1 1 5155C2B4
P 1550 5200
F 0 "D1" V 1600 5300 50  0000 L TNN
F 1 "6V2" V 1500 5300 40  0000 L CNN
F 2 "" H 1550 5200 60  0001 C CNN
F 3 "" H 1550 5200 60  0001 C CNN
F 4 "1W" V 1400 5300 40  0000 L TNN "Power"
F 5 "1N4735A" V 1550 5300 30  0000 L TNN "Model"
	1    1550 5200
	0    1    -1   0   
$EndComp
$Comp
L R-HRZ R3
U 1 1 5155C2B3
P 1950 4900
F 0 "R3" H 1960 5000 50  0000 C CNN
F 1 "220R" H 1955 4800 50  0000 C CNN
F 2 "" H 1950 4900 60  0001 C CNN
F 3 "" H 1950 4900 60  0001 C CNN
F 4 "W" H 1960 4900 40  0001 C CNN "Wattage"
	1    1950 4900
	1    0    0    -1  
$EndComp
$Comp
L GND #PWR08
U 1 1 5155C2B2
P 1550 5500
F 0 "#PWR08" H 1550 5500 30  0001 C CNN
F 1 "GND" H 1550 5430 30  0001 C CNN
F 2 "" H 1550 5500 60  0001 C CNN
F 3 "" H 1550 5500 60  0001 C CNN
	1    1550 5500
	1    0    0    -1  
$EndComp
$Comp
L DIODESCH D3
U 1 1 5155C2B1
P 2600 4300
F 0 "D3" V 2650 4200 40  0000 R CNN
F 1 "1N5819" V 2550 4200 40  0000 R CNN
F 2 "" H 2600 4300 60  0001 C CNN
F 3 "" H 2600 4300 60  0001 C CNN
	1    2600 4300
	0    1    -1   0   
$EndComp
$Comp
L +12V #PWR09
U 1 1 5155C2B0
P 2600 4050
F 0 "#PWR09" H 2600 4000 20  0001 C CNN
F 1 "+12V" H 2600 4200 50  0000 C CNN
F 2 "" H 2600 4050 60  0001 C CNN
F 3 "" H 2600 4050 60  0001 C CNN
	1    2600 4050
	1    0    0    -1  
$EndComp
$Comp
L R-VERT R1
U 1 1 5155C2AF
P 1250 5200
F 0 "R1" H 1330 5250 50  0000 L CNN
F 1 "10k" H 1330 5150 50  0000 L CNN
F 2 "" H 1250 5200 60  0001 C CNN
F 3 "" H 1250 5200 60  0001 C CNN
F 4 "W" H 1330 5050 40  0001 L CNN "Wattage"
	1    1250 5200
	-1   0    0    -1  
$EndComp
$Comp
L GND #PWR010
U 1 1 5155C2AE
P 1250 5500
F 0 "#PWR010" H 1250 5500 30  0001 C CNN
F 1 "GND" H 1250 5430 30  0001 C CNN
F 2 "" H 1250 5500 60  0001 C CNN
F 3 "" H 1250 5500 60  0001 C CNN
	1    1250 5500
	1    0    0    -1  
$EndComp
Text GLabel 2650 4600 2    30   Input ~ 0
Stepper Motor - W1A
Text GLabel 1150 4900 0    30   Input ~ 0
Stepper Motor - C1A
Text GLabel 3900 4950 0    30   Input ~ 0
Stepper Motor - C2A
Text GLabel 5400 4650 2    30   Input ~ 0
Stepper Motor - W2A
$Comp
L GND #PWR011
U 1 1 5155C2AD
P 4000 5550
F 0 "#PWR011" H 4000 5550 30  0001 C CNN
F 1 "GND" H 4000 5480 30  0001 C CNN
F 2 "" H 4000 5550 60  0001 C CNN
F 3 "" H 4000 5550 60  0001 C CNN
	1    4000 5550
	1    0    0    -1  
$EndComp
$Comp
L R-VERT R5
U 1 1 5155C2AC
P 4000 5250
F 0 "R5" H 4080 5300 50  0000 L CNN
F 1 "10k" H 4080 5200 50  0000 L CNN
F 2 "" H 4000 5250 60  0001 C CNN
F 3 "" H 4000 5250 60  0001 C CNN
F 4 "W" H 4080 5100 40  0001 L CNN "Wattage"
	1    4000 5250
	-1   0    0    -1  
$EndComp
$Comp
L +12V #PWR012
U 1 1 5155C2AB
P 5350 4100
F 0 "#PWR012" H 5350 4050 20  0001 C CNN
F 1 "+12V" H 5350 4250 50  0000 C CNN
F 2 "" H 5350 4100 60  0001 C CNN
F 3 "" H 5350 4100 60  0001 C CNN
	1    5350 4100
	1    0    0    -1  
$EndComp
$Comp
L DIODESCH D7
U 1 1 5155C2AA
P 5350 4350
F 0 "D7" V 5400 4250 40  0000 R CNN
F 1 "1N5819" V 5300 4250 40  0000 R CNN
F 2 "" H 5350 4350 60  0001 C CNN
F 3 "" H 5350 4350 60  0001 C CNN
	1    5350 4350
	0    1    -1   0   
$EndComp
$Comp
L GND #PWR013
U 1 1 5155C2A9
P 4300 5550
F 0 "#PWR013" H 4300 5550 30  0001 C CNN
F 1 "GND" H 4300 5480 30  0001 C CNN
F 2 "" H 4300 5550 60  0001 C CNN
F 3 "" H 4300 5550 60  0001 C CNN
	1    4300 5550
	1    0    0    -1  
$EndComp
$Comp
L R-HRZ R7
U 1 1 5155C2A8
P 4700 4950
F 0 "R7" H 4710 5050 50  0000 C CNN
F 1 "220R" H 4705 4850 50  0000 C CNN
F 2 "" H 4700 4950 60  0001 C CNN
F 3 "" H 4700 4950 60  0001 C CNN
F 4 "W" H 4710 4950 40  0001 C CNN "Wattage"
	1    4700 4950
	1    0    0    -1  
$EndComp
$Comp
L ZENER D5
U 1 1 5155C2A7
P 4300 5250
F 0 "D5" V 4350 5350 50  0000 L TNN
F 1 "6V2" V 4250 5350 40  0000 L CNN
F 2 "" H 4300 5250 60  0001 C CNN
F 3 "" H 4300 5250 60  0001 C CNN
F 4 "1W" V 4150 5350 40  0000 L TNN "Power"
F 5 "1N4735A" V 4300 5350 30  0000 L TNN "Model"
	1    4300 5250
	0    1    -1   0   
$EndComp
$Comp
L GND #PWR014
U 1 1 5155C2A6
P 5350 5550
F 0 "#PWR014" H 5350 5550 30  0001 C CNN
F 1 "GND" H 5350 5480 30  0001 C CNN
F 2 "" H 5350 5550 60  0001 C CNN
F 3 "" H 5350 5550 60  0001 C CNN
	1    5350 5550
	1    0    0    -1  
$EndComp
$Comp
L MOSFET_N Q3
U 1 1 5155C2A5
P 5250 4950
F 0 "Q3" H 5410 5020 50  0000 L CNN
F 1 "IRF530" H 5410 4900 50  0000 L CNN
F 2 "" H 5250 4950 60  0001 C CNN
F 3 "" H 5250 4950 60  0001 C CNN
	1    5250 4950
	1    0    0    -1  
$EndComp
$Comp
L MOSFET_N Q4
U 1 1 5155C292
P 5250 6850
F 0 "Q4" H 5410 6920 50  0000 L CNN
F 1 "IRF530" H 5410 6800 50  0000 L CNN
F 2 "" H 5250 6850 60  0001 C CNN
F 3 "" H 5250 6850 60  0001 C CNN
	1    5250 6850
	1    0    0    -1  
$EndComp
$Comp
L GND #PWR015
U 1 1 5155C291
P 5350 7450
F 0 "#PWR015" H 5350 7450 30  0001 C CNN
F 1 "GND" H 5350 7380 30  0001 C CNN
F 2 "" H 5350 7450 60  0001 C CNN
F 3 "" H 5350 7450 60  0001 C CNN
	1    5350 7450
	1    0    0    -1  
$EndComp
$Comp
L ZENER D6
U 1 1 5155C290
P 4300 7150
F 0 "D6" V 4350 7250 50  0000 L TNN
F 1 "6V2" V 4250 7250 40  0000 L CNN
F 2 "" H 4300 7150 60  0001 C CNN
F 3 "" H 4300 7150 60  0001 C CNN
F 4 "1W" V 4150 7250 40  0000 L TNN "Power"
F 5 "1N4735A" V 4300 7250 30  0000 L TNN "Model"
	1    4300 7150
	0    1    -1   0   
$EndComp
$Comp
L R-HRZ R8
U 1 1 5155C28F
P 4700 6850
F 0 "R8" H 4710 6950 50  0000 C CNN
F 1 "220R" H 4705 6750 50  0000 C CNN
F 2 "" H 4700 6850 60  0001 C CNN
F 3 "" H 4700 6850 60  0001 C CNN
F 4 "W" H 4710 6850 40  0001 C CNN "Wattage"
	1    4700 6850
	1    0    0    -1  
$EndComp
$Comp
L GND #PWR016
U 1 1 5155C28E
P 4300 7450
F 0 "#PWR016" H 4300 7450 30  0001 C CNN
F 1 "GND" H 4300 7380 30  0001 C CNN
F 2 "" H 4300 7450 60  0001 C CNN
F 3 "" H 4300 7450 60  0001 C CNN
	1    4300 7450
	1    0    0    -1  
$EndComp
$Comp
L DIODESCH D8
U 1 1 5155C28D
P 5350 6250
F 0 "D8" V 5400 6150 40  0000 R CNN
F 1 "1N5819" V 5300 6150 40  0000 R CNN
F 2 "" H 5350 6250 60  0001 C CNN
F 3 "" H 5350 6250 60  0001 C CNN
	1    5350 6250
	0    1    -1   0   
$EndComp
$Comp
L +12V #PWR017
U 1 1 5155C28C
P 5350 6000
F 0 "#PWR017" H 5350 5950 20  0001 C CNN
F 1 "+12V" H 5350 6150 50  0000 C CNN
F 2 "" H 5350 6000 60  0001 C CNN
F 3 "" H 5350 6000 60  0001 C CNN
	1    5350 6000
	1    0    0    -1  
$EndComp
$Comp
L R-VERT R6
U 1 1 5155C28B
P 4000 7150
F 0 "R6" H 4080 7200 50  0000 L CNN
F 1 "10k" H 4080 7100 50  0000 L CNN
F 2 "" H 4000 7150 60  0001 C CNN
F 3 "" H 4000 7150 60  0001 C CNN
F 4 "W" H 4080 7000 40  0001 L CNN "Wattage"
	1    4000 7150
	-1   0    0    -1  
$EndComp
$Comp
L GND #PWR018
U 1 1 5155C28A
P 4000 7450
F 0 "#PWR018" H 4000 7450 30  0001 C CNN
F 1 "GND" H 4000 7380 30  0001 C CNN
F 2 "" H 4000 7450 60  0001 C CNN
F 3 "" H 4000 7450 60  0001 C CNN
	1    4000 7450
	1    0    0    -1  
$EndComp
Text GLabel 5400 6550 2    30   Input ~ 0
Stepper Motor - W2B
Text GLabel 3900 6850 0    30   Input ~ 0
Stepper Motor - C2B
$Comp
L GND #PWR019
U 1 1 5155C276
P 5500 1900
F 0 "#PWR019" H 5500 1900 30  0001 C CNN
F 1 "GND" H 5500 1830 30  0001 C CNN
F 2 "" H 5500 1900 60  0001 C CNN
F 3 "" H 5500 1900 60  0001 C CNN
	1    5500 1900
	1    0    0    -1  
$EndComp
$Comp
L GND #PWR020
U 1 1 5155C273
P 2700 1550
F 0 "#PWR020" H 2700 1550 30  0001 C CNN
F 1 "GND" H 2700 1480 30  0001 C CNN
F 2 "" H 2700 1550 60  0001 C CNN
F 3 "" H 2700 1550 60  0001 C CNN
	1    2700 1550
	1    0    0    -1  
$EndComp
$Comp
L VCC #PWR021
U 1 1 5155C263
P 1800 1300
F 0 "#PWR021" H 1800 1400 30  0001 C CNN
F 1 "VCC" H 1800 1425 50  0000 C CNN
F 2 "" H 1800 1300 60  0001 C CNN
F 3 "" H 1800 1300 60  0001 C CNN
	1    1800 1300
	1    0    0    -1  
$EndComp
$Comp
L C-HRZ C1
U 1 1 5155C25C
P 2400 1450
F 0 "C1" H 2399 1625 50  0000 C CNN
F 1 "150n" H 2399 1275 50  0000 C CNN
F 2 "" H 2400 1450 60  0001 C CNN
F 3 "" H 2400 1450 60  0001 C CNN
F 4 "V" H 2399 1175 40  0001 C CNN "Voltage"
	1    2400 1450
	1    0    0    -1  
$EndComp
$Comp
L PIC16F616 U1
U 1 1 5155C256
P 3650 2300
F 0 "U1" H 3650 1650 60  0000 C CNN
F 1 "PIC16F616" H 3600 2950 60  0000 C CNN
F 2 "" H 3650 2300 60  0001 C CNN
F 3 "" H 3650 2300 60  0001 C CNN
	1    3650 2300
	1    0    0    -1  
$EndComp
$Sheet
S 10000 6500 1100 550 
U 5155C1EC
F0 "Connectors" 60
F1 "Connectors.sch" 60
$EndSheet
Text GLabel 7300 6450 0    30   Input ~ 0
Moving LED
Text GLabel 7300 5850 0    30   Input ~ 0
Moving LED Ctrl
$Comp
L R-VERT R10
U 1 1 5155C0DC
P 7350 6150
F 0 "R10" H 7430 6200 50  0000 L CNN
F 1 "330R" H 7430 6100 50  0000 L CNN
F 2 "" H 7350 6150 60  0001 C CNN
F 3 "" H 7350 6150 60  0001 C CNN
F 4 "W" H 7430 6000 40  0001 L CNN "Wattage"
	1    7350 6150
	-1   0    0    -1  
$EndComp
$Comp
L GND #PWR022
U 1 1 5155C0CB
P 7350 6950
F 0 "#PWR022" H 7350 6950 30  0001 C CNN
F 1 "GND" H 7350 6880 30  0001 C CNN
F 2 "" H 7350 6950 60  0001 C CNN
F 3 "" H 7350 6950 60  0001 C CNN
	1    7350 6950
	1    0    0    -1  
$EndComp
$Comp
L LED-V D9
U 1 1 5155C09B
P 7350 6700
F 0 "D9" H 7250 6750 50  0000 R CNN
F 1 "LED - Up" H 7250 6650 50  0000 R CNN
F 2 "" H 7350 6700 60  0001 C CNN
F 3 "" H 7350 6700 60  0001 C CNN
	1    7350 6700
	1    0    0    -1  
$EndComp
$Comp
L GND #PWR023
U 1 1 5155BC36
P 7850 2700
F 0 "#PWR023" H 7850 2700 30  0001 C CNN
F 1 "GND" H 7850 2630 30  0001 C CNN
F 2 "" H 7850 2700 60  0001 C CNN
F 3 "" H 7850 2700 60  0001 C CNN
	1    7850 2700
	1    0    0    -1  
$EndComp
$Comp
L CRYSTAL-WITH-CASE X1
U 1 1 5155BC37
P 7850 2500
F 0 "X1" H 8050 2550 60  0000 C CNN
F 1 "32.768kHz" H 7850 2350 60  0000 C CNN
F 2 "" H 7850 2500 60  0001 C CNN
F 3 "" H 7850 2500 60  0001 C CNN
	1    7850 2500
	-1   0    0    1   
$EndComp
$Comp
L DS1307 U2
U 1 1 5155BC3E
P 8900 2800
F 0 "U2" H 8500 3100 50  0000 L CNN
F 1 "DS1307" H 8500 2350 50  0000 L CNN
F 2 "" H 8900 2800 60  0001 C CNN
F 3 "" H 8900 2800 60  0001 C CNN
	1    8900 2800
	1    0    0    -1  
$EndComp
$Comp
L BATTERY BT1
U 1 1 5155BC3D
P 7900 3150
F 0 "BT1" V 7850 3250 40  0000 L CNN
F 1 "1.5V" V 7950 3260 40  0000 L CNN
F 2 "" H 7900 3150 60  0001 C CNN
F 3 "" H 7900 3150 60  0001 C CNN
	1    7900 3150
	0    -1   1    0   
$EndComp
$Comp
L GND #PWR024
U 1 1 5155BC3C
P 7900 3400
F 0 "#PWR024" H 7900 3400 30  0001 C CNN
F 1 "GND" H 7900 3330 30  0001 C CNN
F 2 "" H 7900 3400 60  0001 C CNN
F 3 "" H 7900 3400 60  0001 C CNN
	1    7900 3400
	1    0    0    -1  
$EndComp
$Comp
L GND #PWR025
U 1 1 5155BC3B
P 8100 3400
F 0 "#PWR025" H 8100 3400 30  0001 C CNN
F 1 "GND" H 8100 3330 30  0001 C CNN
F 2 "" H 8100 3400 60  0001 C CNN
F 3 "" H 8100 3400 60  0001 C CNN
	1    8100 3400
	1    0    0    -1  
$EndComp
$Comp
L VCC #PWR026
U 1 1 5155BC3A
P 9700 2200
F 0 "#PWR026" H 9700 2300 30  0001 C CNN
F 1 "VCC" H 9700 2325 50  0000 C CNN
F 2 "" H 9700 2200 60  0001 C CNN
F 3 "" H 9700 2200 60  0001 C CNN
	1    9700 2200
	1    0    0    -1  
$EndComp
Text GLabel 10600 2950 2    60   Input ~ 0
SCL
Text GLabel 10600 3100 2    60   Input ~ 0
SDA
$Comp
L C-HRZ C4
U 1 1 5155BC39
P 9100 2250
F 0 "C4" H 9099 2425 50  0000 C CNN
F 1 "150n" H 9099 2075 50  0000 C CNN
F 2 "" H 9100 2250 60  0001 C CNN
F 3 "" H 9100 2250 60  0001 C CNN
F 4 "V" H 9099 1975 40  0001 C CNN "Voltage"
	1    9100 2250
	1    0    0    -1  
$EndComp
$Comp
L GND #PWR027
U 1 1 5155BC38
P 8800 2300
F 0 "#PWR027" H 8800 2300 30  0001 C CNN
F 1 "GND" H 8800 2230 30  0001 C CNN
F 2 "" H 8800 2300 60  0001 C CNN
F 3 "" H 8800 2300 60  0001 C CNN
	1    8800 2300
	1    0    0    -1  
$EndComp
NoConn ~ 9600 2800
$Comp
L +12V #PWR028
U 1 1 5155B812
P 8050 1000
F 0 "#PWR028" H 8050 950 20  0001 C CNN
F 1 "+12V" H 8050 1150 50  0000 C CNN
F 2 "" H 8050 1000 60  0001 C CNN
F 3 "" H 8050 1000 60  0001 C CNN
	1    8050 1000
	1    0    0    -1  
$EndComp
$Comp
L VCC #PWR029
U 1 1 5155B80C
P 9800 1000
F 0 "#PWR029" H 9800 1100 30  0001 C CNN
F 1 "VCC" H 9800 1125 50  0000 C CNN
F 2 "" H 9800 1000 60  0001 C CNN
F 3 "" H 9800 1000 60  0001 C CNN
	1    9800 1000
	1    0    0    -1  
$EndComp
$Comp
L GND #PWR030
U 1 1 5155B803
P 8050 1600
F 0 "#PWR030" H 8050 1600 30  0001 C CNN
F 1 "GND" H 8050 1530 30  0001 C CNN
F 2 "" H 8050 1600 60  0001 C CNN
F 3 "" H 8050 1600 60  0001 C CNN
	1    8050 1600
	1    0    0    -1  
$EndComp
$Comp
L GND #PWR031
U 1 1 5155B802
P 8700 1600
F 0 "#PWR031" H 8700 1600 30  0001 C CNN
F 1 "GND" H 8700 1530 30  0001 C CNN
F 2 "" H 8700 1600 60  0001 C CNN
F 3 "" H 8700 1600 60  0001 C CNN
	1    8700 1600
	1    0    0    -1  
$EndComp
$Comp
L GND #PWR032
U 1 1 5155B800
P 9250 1600
F 0 "#PWR032" H 9250 1600 30  0001 C CNN
F 1 "GND" H 9250 1530 30  0001 C CNN
F 2 "" H 9250 1600 60  0001 C CNN
F 3 "" H 9250 1600 60  0001 C CNN
	1    9250 1600
	1    0    0    -1  
$EndComp
$Comp
L GND #PWR033
U 1 1 5155B7FF
P 10450 1600
F 0 "#PWR033" H 10450 1600 30  0001 C CNN
F 1 "GND" H 10450 1530 30  0001 C CNN
F 2 "" H 10450 1600 60  0001 C CNN
F 3 "" H 10450 1600 60  0001 C CNN
	1    10450 1600
	1    0    0    -1  
$EndComp
$Comp
L GND #PWR034
U 1 1 5155B7FC
P 9800 1600
F 0 "#PWR034" H 9800 1600 30  0001 C CNN
F 1 "GND" H 9800 1530 30  0001 C CNN
F 2 "" H 9800 1600 60  0001 C CNN
F 3 "" H 9800 1600 60  0001 C CNN
	1    9800 1600
	1    0    0    -1  
$EndComp
$Comp
L CP-VERT C2
U 1 1 5155B7EA
P 8050 1350
F 0 "C2" H 8200 1400 50  0000 L CNN
F 1 "470uF" H 8200 1300 50  0000 L CNN
F 2 "" H 8050 1350 60  0001 C CNN
F 3 "" H 8050 1350 60  0001 C CNN
F 4 "35V" H 8200 1200 40  0000 L CNN "Voltage"
	1    8050 1350
	-1   0    0    -1  
$EndComp
$Comp
L C-VERT C3
U 1 1 5155B7E2
P 8700 1350
F 0 "C3" H 8850 1400 50  0000 L CNN
F 1 "150n" H 8850 1300 50  0000 L CNN
F 2 "" H 8700 1350 60  0001 C CNN
F 3 "" H 8700 1350 60  0001 C CNN
F 4 "V" H 8850 1200 40  0001 L CNN "Voltage"
	1    8700 1350
	-1   0    0    -1  
$EndComp
$Comp
L CP-VERT C6
U 1 1 5155B7DF
P 10450 1350
F 0 "C6" H 10600 1400 50  0000 L CNN
F 1 "220uF" H 10600 1300 50  0000 L CNN
F 2 "" H 10450 1350 60  0001 C CNN
F 3 "" H 10450 1350 60  0001 C CNN
F 4 "16V" H 10600 1200 40  0000 L CNN "Voltage"
	1    10450 1350
	1    0    0    -1  
$EndComp
$Comp
L C-VERT C5
U 1 1 5155B7D4
P 9800 1350
F 0 "C5" H 9950 1400 50  0000 L CNN
F 1 "150n" H 9950 1300 50  0000 L CNN
F 2 "" H 9800 1350 60  0001 C CNN
F 3 "" H 9800 1350 60  0001 C CNN
F 4 "V" H 9950 1200 40  0001 L CNN "Voltage"
	1    9800 1350
	1    0    0    -1  
$EndComp
$Comp
L LM7805 U3
U 1 1 5155B7CC
P 9250 1150
F 0 "U3" H 9400 950 60  0000 C CNN
F 1 "LM7805" H 9250 1350 60  0000 C CNN
F 2 "" H 9250 1150 60  0001 C CNN
F 3 "" H 9250 1150 60  0001 C CNN
	1    9250 1150
	1    0    0    -1  
$EndComp
$Comp
L SW_PUSH SW1
U 1 1 5155B77D
P 6800 4450
F 0 "SW1" V 6850 4400 35  0000 R CNN
F 1 "Reference Sensor" V 6750 4400 50  0000 R CNN
F 2 "" H 6800 4450 60  0001 C CNN
F 3 "" H 6800 4450 60  0001 C CNN
	1    6800 4450
	0    -1   -1   0   
$EndComp
$Comp
L R-VERT R9
U 1 1 5155B77C
P 6800 5100
F 0 "R9" H 6880 5150 50  0000 L CNN
F 1 "10k" H 6880 5050 50  0000 L CNN
F 2 "" H 6800 5100 60  0001 C CNN
F 3 "" H 6800 5100 60  0001 C CNN
F 4 "W" H 6880 4950 40  0001 L CNN "Wattage"
	1    6800 5100
	-1   0    0    -1  
$EndComp
$Comp
L VCC #PWR035
U 1 1 5155B77B
P 6800 4050
F 0 "#PWR035" H 6800 4150 30  0001 C CNN
F 1 "VCC" H 6800 4175 50  0000 C CNN
F 2 "" H 6800 4050 60  0001 C CNN
F 3 "" H 6800 4050 60  0001 C CNN
	1    6800 4050
	1    0    0    -1  
$EndComp
$Comp
L GND #PWR036
U 1 1 5155B77A
P 6800 5450
F 0 "#PWR036" H 6800 5450 30  0001 C CNN
F 1 "GND" H 6800 5380 30  0001 C CNN
F 2 "" H 6800 5450 60  0001 C CNN
F 3 "" H 6800 5450 60  0001 C CNN
	1    6800 5450
	1    0    0    -1  
$EndComp
Text GLabel 6900 4800 2    30   Input ~ 0
Reference Sensor
Text GLabel 7950 4800 2    30   Input ~ 0
Buttons - 1st Floor
$Comp
L GND #PWR037
U 1 1 5155B68C
P 7850 5450
F 0 "#PWR037" H 7850 5450 30  0001 C CNN
F 1 "GND" H 7850 5380 30  0001 C CNN
F 2 "" H 7850 5450 60  0001 C CNN
F 3 "" H 7850 5450 60  0001 C CNN
	1    7850 5450
	1    0    0    -1  
$EndComp
$Comp
L VCC #PWR038
U 1 1 5155B684
P 7850 4050
F 0 "#PWR038" H 7850 4150 30  0001 C CNN
F 1 "VCC" H 7850 4175 50  0000 C CNN
F 2 "" H 7850 4050 60  0001 C CNN
F 3 "" H 7850 4050 60  0001 C CNN
	1    7850 4050
	1    0    0    -1  
$EndComp
$Comp
L R-VERT R11
U 1 1 5155B677
P 7850 5100
F 0 "R11" H 7930 5150 50  0000 L CNN
F 1 "10k" H 7930 5050 50  0000 L CNN
F 2 "" H 7850 5100 60  0001 C CNN
F 3 "" H 7850 5100 60  0001 C CNN
F 4 "W" H 7930 4950 40  0001 L CNN "Wattage"
	1    7850 5100
	-1   0    0    -1  
$EndComp
$Comp
L SW_PUSH SW2
U 1 1 5155B654
P 7850 4450
F 0 "SW2" V 7900 4350 35  0000 C CNN
F 1 "1st Floor" V 7800 4200 50  0000 C CNN
F 2 "" H 7850 4450 60  0001 C CNN
F 3 "" H 7850 4450 60  0001 C CNN
	1    7850 4450
	0    -1   -1   0   
$EndComp
Text GLabel 1150 6800 0    30   Input ~ 0
Stepper Motor - C1B
Text GLabel 2650 6500 2    30   Input ~ 0
Stepper Motor - W1B
$Comp
L GND #PWR039
U 1 1 51559B56
P 1250 7400
F 0 "#PWR039" H 1250 7400 30  0001 C CNN
F 1 "GND" H 1250 7330 30  0001 C CNN
F 2 "" H 1250 7400 60  0001 C CNN
F 3 "" H 1250 7400 60  0001 C CNN
	1    1250 7400
	1    0    0    -1  
$EndComp
$Comp
L R-VERT R2
U 1 1 51559B4D
P 1250 7100
F 0 "R2" H 1330 7150 50  0000 L CNN
F 1 "10k" H 1330 7050 50  0000 L CNN
F 2 "" H 1250 7100 60  0001 C CNN
F 3 "" H 1250 7100 60  0001 C CNN
F 4 "W" H 1330 6950 40  0001 L CNN "Wattage"
	1    1250 7100
	-1   0    0    -1  
$EndComp
$Comp
L +12V #PWR040
U 1 1 51559B38
P 2600 5950
F 0 "#PWR040" H 2600 5900 20  0001 C CNN
F 1 "+12V" H 2600 6100 50  0000 C CNN
F 2 "" H 2600 5950 60  0001 C CNN
F 3 "" H 2600 5950 60  0001 C CNN
	1    2600 5950
	1    0    0    -1  
$EndComp
$Comp
L DIODESCH D4
U 1 1 51559B17
P 2600 6200
F 0 "D4" V 2650 6100 40  0000 R CNN
F 1 "1N5819" V 2550 6100 40  0000 R CNN
F 2 "" H 2600 6200 60  0001 C CNN
F 3 "" H 2600 6200 60  0001 C CNN
	1    2600 6200
	0    1    -1   0   
$EndComp
$Comp
L GND #PWR041
U 1 1 51559AFD
P 1550 7400
F 0 "#PWR041" H 1550 7400 30  0001 C CNN
F 1 "GND" H 1550 7330 30  0001 C CNN
F 2 "" H 1550 7400 60  0001 C CNN
F 3 "" H 1550 7400 60  0001 C CNN
	1    1550 7400
	1    0    0    -1  
$EndComp
$Comp
L R-HRZ R4
U 1 1 51559AB8
P 1950 6800
F 0 "R4" H 1960 6900 50  0000 C CNN
F 1 "220R" H 1955 6700 50  0000 C CNN
F 2 "" H 1950 6800 60  0001 C CNN
F 3 "" H 1950 6800 60  0001 C CNN
F 4 "W" H 1960 6800 40  0001 C CNN "Wattage"
	1    1950 6800
	1    0    0    -1  
$EndComp
$Comp
L ZENER D2
U 1 1 51559AA4
P 1550 7100
F 0 "D2" V 1600 7200 50  0000 L TNN
F 1 "6V2" V 1500 7200 40  0000 L CNN
F 2 "" H 1550 7100 60  0001 C CNN
F 3 "" H 1550 7100 60  0001 C CNN
F 4 "1W" V 1400 7200 40  0000 L TNN "Power"
F 5 "1N4735A" V 1550 7200 30  0000 L TNN "Model"
	1    1550 7100
	0    1    -1   0   
$EndComp
$Comp
L GND #PWR042
U 1 1 51559A97
P 2600 7400
F 0 "#PWR042" H 2600 7400 30  0001 C CNN
F 1 "GND" H 2600 7330 30  0001 C CNN
F 2 "" H 2600 7400 60  0001 C CNN
F 3 "" H 2600 7400 60  0001 C CNN
	1    2600 7400
	1    0    0    -1  
$EndComp
$Comp
L MOSFET_N Q2
U 1 1 51559A83
P 2500 6800
F 0 "Q2" H 2660 6870 50  0000 L CNN
F 1 "IRF530" H 2660 6750 50  0000 L CNN
F 2 "" H 2500 6800 60  0001 C CNN
F 3 "" H 2500 6800 60  0001 C CNN
	1    2500 6800
	1    0    0    -1  
$EndComp
Wire Wire Line
	5350 4550 5350 4750
Wire Wire Line
	1850 2000 1900 2000
Wire Wire Line
	1850 2150 1900 2150
Wire Wire Line
	1850 2300 1900 2300
Wire Wire Line
	5600 2000 5400 2000
Wire Wire Line
	5400 2150 5600 2150
Wire Wire Line
	5600 2300 5400 2300
Wire Wire Line
	1850 2750 1900 2750
Wire Wire Line
	1850 2600 1900 2600
Wire Wire Line
	1850 2450 1900 2450
Text GLabel 5600 2150 2    30   Input ~ 0
Moving LED Ctrl
Wire Wire Line
	5600 2450 5400 2450
Wire Wire Line
	5400 2600 5600 2600
Wire Wire Line
	5600 2750 5400 2750
$EndSCHEMATC
